module english-word-parser

go 1.19

require (
	github.com/PuerkitoBio/goquery v1.8.0 // indirect
	github.com/andybalholm/cascadia v1.3.1 // indirect
	github.com/antchfx/htmlquery v1.2.5 // indirect
	github.com/antchfx/xmlquery v1.3.12 // indirect
	github.com/antchfx/xpath v1.2.1 // indirect
	github.com/davecgh/go-spew v1.1.1 // indirect
	github.com/gin-contrib/sse v0.1.0 // indirect
	github.com/gin-gonic/gin v1.8.1 // indirect
	github.com/go-playground/locales v0.14.0 // indirect
	github.com/go-playground/universal-translator v0.18.0 // indirect
	github.com/go-playground/validator/v10 v10.11.1 // indirect
	github.com/gobwas/glob v0.2.3 // indirect
	github.com/goccy/go-json v0.9.11 // indirect
	github.com/golang/groupcache v0.0.0-20200121045136-8c9f03a8e57e // indirect
	github.com/golang/protobuf v1.5.0 // indirect
	github.com/json-iterator/go v1.1.12 // indirect
	github.com/kennygrant/sanitize v1.2.4 // indirect
	github.com/leodido/go-urn v1.2.1 // indirect
	github.com/mattn/go-isatty v0.0.16 // indirect
	github.com/modern-go/concurrent v0.0.0-20180306012644-bacd9c7ef1dd // indirect
	github.com/modern-go/reflect2 v1.0.2 // indirect
	github.com/pelletier/go-toml/v2 v2.0.5 // indirect
	github.com/pmezard/go-difflib v1.0.0 // indirect
	github.com/saintfish/chardet v0.0.0-20120816061221-3af4cd4741ca // indirect
	github.com/stretchr/testify v1.8.1 // indirect
	github.com/temoto/robotstxt v1.1.2 // indirect
	github.com/ugorji/go/codec v1.2.7 // indirect
	golang.org/x/crypto v0.1.0 // indirect
	golang.org/x/net v0.1.0 // indirect
	golang.org/x/sys v0.1.0 // indirect
	golang.org/x/text v0.4.0 // indirect
	google.golang.org/appengine v1.6.7 // indirect
	google.golang.org/protobuf v1.28.1 // indirect
	gopkg.in/yaml.v2 v2.4.0 // indirect
	gopkg.in/yaml.v3 v3.0.1 // indirect
)
